tidymodels
…
Uses the predict() function

‼️ new_data has an underscore

😄 This automagically creates a data frame

Get predictions

lm_fit |>
  predict(new_data = Auto) |>
  bind_cols(Auto)

# A tibble: 392 × 10
   .pred   mpg cylinders displacement horsep…¹ weight accel…²  year origin name 
 * <dbl> <dbl>     <dbl>        <dbl>    <dbl>  <dbl>   <dbl> <dbl>  <dbl> <fct>
 1 19.4     18         8          307      130   3504    12      70      1 chev…
 2 13.9     15         8          350      165   3693    11.5    70      1 buic…
 3 16.3     18         8          318      150   3436    11      70      1 plym…
 4 16.3     16         8          304      150   3433    12      70      1 amc …
 5 17.8     17         8          302      140   3449    10.5    70      1 ford…
 6  8.68    15         8          429      198   4341    10      70      1 ford…
 7  5.21    14         8          454      220   4354     9      70      1 chev…
 8  6.00    14         8          440      215   4312     8.5    70      1 plym…
 9  4.42    14         8          455      225   4425    10      70      1 pont…
10  9.95    15         8          390      190   3850     8.5    70      1 amc …
# … with 382 more rows, and abbreviated variable names ¹​horsepower,
#   ²​acceleration

What does bind_cols do?

Get predictions

lm_fit |>
  predict(new_data = Auto) |>
  bind_cols(Auto)

# A tibble: 392 × 10
   .pred   mpg cylinders displacement horsep…¹ weight accel…²  year origin name 
 * <dbl> <dbl>     <dbl>        <dbl>    <dbl>  <dbl>   <dbl> <dbl>  <dbl> <fct>
 1 19.4     18         8          307      130   3504    12      70      1 chev…
 2 13.9     15         8          350      165   3693    11.5    70      1 buic…
 3 16.3     18         8          318      150   3436    11      70      1 plym…
 4 16.3     16         8          304      150   3433    12      70      1 amc …
 5 17.8     17         8          302      140   3449    10.5    70      1 ford…
 6  8.68    15         8          429      198   4341    10      70      1 ford…
 7  5.21    14         8          454      220   4354     9      70      1 chev…
 8  6.00    14         8          440      215   4312     8.5    70      1 plym…
 9  4.42    14         8          455      225   4425    10      70      1 pont…
10  9.95    15         8          390      190   3850     8.5    70      1 amc …
# … with 382 more rows, and abbreviated variable names ¹​horsepower,
#   ²​acceleration
…
Edit the code below to add the original data to the predicted data.

mpg_pred <- lm_fit |> 
  predict(new_data = Auto) |> 
  ---

Get predictions

mpg_pred <- lm_fit |>
  predict(new_data = Auto) |>
  bind_cols(Auto)

mpg_pred

# A tibble: 392 × 10
   .pred   mpg cylinders displacement horsep…¹ weight accel…²  year origin name 
 * <dbl> <dbl>     <dbl>        <dbl>    <dbl>  <dbl>   <dbl> <dbl>  <dbl> <fct>
 1 19.4     18         8          307      130   3504    12      70      1 chev…
 2 13.9     15         8          350      165   3693    11.5    70      1 buic…
 3 16.3     18         8          318      150   3436    11      70      1 plym…
 4 16.3     16         8          304      150   3433    12      70      1 amc …
 5 17.8     17         8          302      140   3449    10.5    70      1 ford…
 6  8.68    15         8          429      198   4341    10      70      1 ford…
 7  5.21    14         8          454      220   4354     9      70      1 chev…
 8  6.00    14         8          440      215   4312     8.5    70      1 plym…
 9  4.42    14         8          455      225   4425    10      70      1 pont…
10  9.95    15         8          390      190   3850     8.5    70      1 amc …
# … with 382 more rows, and abbreviated variable names ¹​horsepower,
#   ²​acceleration
…
<Training/Testing/Total>
<196/196/392>

Extract the training and testing data

training(Auto_split)
testing(Auto_split)

Validation set approach

Auto_train <- training(Auto_split)

Auto_train

# A tibble: 196 × 9
     mpg cylinders displacement horsepower weight accelerat…¹  year origin name 
   <dbl>     <dbl>        <dbl>      <dbl>  <dbl>       <dbl> <dbl>  <dbl> <fct>
 1  19           4        120           88   3270        21.9    76      2 peug…
 2  20.5         6        200           95   3155        18.2    78      1 chev…
 3  37.2         4         86           65   2019        16.4    80      3 dats…
 4  22           6        250          105   3353        14.5    76      1 chev…
 5  14           8        351          148   4657        13.5    75      1 ford…
 6  14           8        351          153   4129        13      72      1 ford…
 7  25           4         97.5         80   2126        17      72      1 dodg…
 8  16           8        351          149   4335        14.5    77      1 ford…
 9  38           4         91           67   1995        16.2    82      3 dats…
10  31.6         4        120           74   2635        18.3    81      3 mazd…
# … with 186 more rows, and abbreviated variable name ¹​acceleration
…
