tidymodels
…
grid <- expand_grid(penalty = seq(0, 100, by = 10),
                    mixture = seq(0, 1, by = 0.2))

results <- tune_grid(penalty_spec,
                     preprocessor = rec,
                     grid = grid, 
                     resamples = Auto_cv)

tune 🎶

results |>
  collect_metrics()

# A tibble: 132 × 8
   penalty mixture .metric .estimator  mean     n std_err .config              
     <dbl>   <dbl> <chr>   <chr>      <dbl> <int>   <dbl> <chr>                
 1       0       0 rmse    standard   4.25      5  0.217  Preprocessor1_Model01
 2       0       0 rsq     standard   0.710     5  0.0171 Preprocessor1_Model01
 3      10       0 rmse    standard   4.74      5  0.246  Preprocessor1_Model02
 4      10       0 rsq     standard   0.706     5  0.0193 Preprocessor1_Model02
 5      20       0 rmse    standard   5.28      5  0.255  Preprocessor1_Model03
 6      20       0 rsq     standard   0.705     5  0.0194 Preprocessor1_Model03
 7      30       0 rmse    standard   5.69      5  0.258  Preprocessor1_Model04
 8      30       0 rsq     standard   0.705     5  0.0195 Preprocessor1_Model04
 9      40       0 rmse    standard   5.99      5  0.260  Preprocessor1_Model05
10      40       0 rsq     standard   0.705     5  0.0195 Preprocessor1_Model05
# … with 122 more rows

Subset results

results |>
  collect_metrics() |>
  filter(.metric == "rmse") |>
  arrange(mean)

# A tibble: 66 × 8
   penalty mixture .metric .estimator  mean     n std_err .config              
     <dbl>   <dbl> <chr>   <chr>      <dbl> <int>   <dbl> <chr>                
 1       0     0.6 rmse    standard    4.24     5   0.207 Preprocessor1_Model34
 2       0     0.4 rmse    standard    4.24     5   0.207 Preprocessor1_Model23
 3       0     1   rmse    standard    4.24     5   0.207 Preprocessor1_Model56
 4       0     0.8 rmse    standard    4.24     5   0.207 Preprocessor1_Model45
 5       0     0.2 rmse    standard    4.24     5   0.207 Preprocessor1_Model12
 6       0     0   rmse    standard    4.25     5   0.217 Preprocessor1_Model01
 7      10     0   rmse    standard    4.74     5   0.246 Preprocessor1_Model02
 8      20     0   rmse    standard    5.28     5   0.255 Preprocessor1_Model03
 9      10     0.2 rmse    standard    5.37     5   0.258 Preprocessor1_Model13
10      30     0   rmse    standard    5.69     5   0.258 Preprocessor1_Model04
# … with 56 more rows

Since this is a data frame, we can do things like filter and arrange!

Subset results

results |>
  collect_metrics() |>
  filter(.metric == "rmse") |>
  arrange(mean)

# A tibble: 66 × 8
   penalty mixture .metric .estimator  mean     n std_err .config              
     <dbl>   <dbl> <chr>   <chr>      <dbl> <int>   <dbl> <chr>                
 1       0     0.6 rmse    standard    4.24     5   0.207 Preprocessor1_Model34
 2       0     0.4 rmse    standard    4.24     5   0.207 Preprocessor1_Model23
 3       0     1   rmse    standard    4.24     5   0.207 Preprocessor1_Model56
 4       0     0.8 rmse    standard    4.24     5   0.207 Preprocessor1_Model45
 5       0     0.2 rmse    standard    4.24     5   0.207 Preprocessor1_Model12
 6       0     0   rmse    standard    4.25     5   0.217 Preprocessor1_Model01
 7      10     0   rmse    standard    4.74     5   0.246 Preprocessor1_Model02
 8      20     0   rmse    standard    5.28     5   0.255 Preprocessor1_Model03
 9      10     0.2 rmse    standard    5.37     5   0.258 Preprocessor1_Model13
10      30     0   rmse    standard    5.69     5   0.258 Preprocessor1_Model04
# … with 56 more rows
…
rec <- recipe(mpg ~ horsepower + displacement + weight, data = auto_train) |>
  step_scale(all_predictors())

tuning <- tune_grid(penalty_spec,
                     rec,
                     grid = grid,
                     resamples = auto_cv)

tuning |>
  collect_metrics() |>
  filter(.metric == "rmse") |>
  arrange(mean)

# A tibble: 66 × 8
   penalty mixture .metric .estimator  mean     n std_err .config              
     <dbl>   <dbl> <chr>   <chr>      <dbl> <int>   <dbl> <chr>                
 1       0     1   rmse    standard    4.52     5   0.105 Preprocessor1_Model56
 2       0     0.6 rmse    standard    4.52     5   0.105 Preprocessor1_Model34
 3       0     0.8 rmse    standard    4.52     5   0.106 Preprocessor1_Model45
 4       0     0.2 rmse    standard    4.53     5   0.104 Preprocessor1_Model12
 5       0     0.4 rmse    standard    4.53     5   0.104 Preprocessor1_Model23
 6       0     0   rmse    standard    4.54     5   0.132 Preprocessor1_Model01
 7      10     0   rmse    standard    5.01     5   0.232 Preprocessor1_Model02
 8      20     0   rmse    standard    5.54     5   0.266 Preprocessor1_Model03
 9      10     0.2 rmse    standard    5.63     5   0.271 Preprocessor1_Model13
10      30     0   rmse    standard    5.94     5   0.280 Preprocessor1_Model04
# … with 56 more rows
…
