Missing Data
…
nc_cmean_impute <- fit(linear_reg(),
    fage ~ mage,
    data = nc) |>
  predict(new_data = nc) |>
  bind_cols(nc) |>
  mutate(
    imputed = is.na(fage),
    fage = case_when(
    imputed ~ .pred,
    TRUE ~ as.numeric(fage)
  ))

nc_cmean_impute

# A tibble: 1,000 × 15
   .pred  fage  mage mature    weeks premie visits marital gained weight lowbi…¹
   <dbl> <dbl> <int> <fct>     <int> <fct>   <int> <fct>    <int>  <dbl> <fct>  
 1  17.8  17.8    13 younger …    39 full …     10 married     38   7.63 not low
 2  18.6  18.6    14 younger …    42 full …     15 married     20   7.88 not low
 3  19.5  19      15 younger …    37 full …     11 married     38   6.63 not low
 4  19.5  21      15 younger …    41 full …      6 married     34   8    not low
 5  19.5  19.5    15 younger …    39 full …      9 married     27   6.38 not low
 6  19.5  19.5    15 younger …    38 full …     19 married     22   5.38 low    
 7  19.5  18      15 younger …    37 full …     12 married     76   8.44 not low
 8  19.5  17      15 younger …    35 premie      5 married     15   4.69 low    
 9  20.3  20.3    16 younger …    38 full …      9 married     NA   8.81 not low
10  20.3  20      16 younger …    37 full …     13 married     52   6.94 not low
# … with 990 more rows, 4 more variables: gender <fct>, habit <fct>,
#   whitemom <fct>, imputed <lgl>, and abbreviated variable name
#   ¹​lowbirthweight
…
