Non-linearity in R
…
library(tidymodels)

rec_splines <- recipe(
  HHV ~ carbon + hydrogen + oxygen + nitrogen + sulfur, 
  data = biomass) |>
  step_ns(carbon, hydrogen)

Natural Cubic Splines Example

expanded_biomass <- prep(rec_splines, biomass) |>
  bake(biomass)

expanded_biomass

# A tibble: 536 × 8
   oxygen nitrogen sulfur   HHV carbon_ns_1 carbon_ns_2 hydrogen_ns_1 hydrogen…¹
    <dbl>    <dbl>  <dbl> <dbl>       <dbl>       <dbl>         <dbl>      <dbl>
 1   42.9     0.41   0     20.0       0.549      -0.220         0.561     -0.220
 2   41.3     0.2    0     19.2       0.547      -0.222         0.564     -0.216
 3   46.2     0.11   0.02  18.3       0.536      -0.231         0.567     -0.210
 4   35.6     3.3    0.16  18.2       0.512      -0.239         0.530     -0.248
 5   40.7     1      0.02  18.4       0.527      -0.235         0.552     -0.233
 6   40.2     2.04   0.1   18.5       0.515      -0.238         0.565     -0.213
 7   38.2     2.68   0.2   18.7       0.530      -0.233         0.572     -0.196
 8   39.7     1.7    0.2   18.3       0.518      -0.238         0.564     -0.216
 9   40.9     0.8    0     18.6       0.543      -0.226         0.556     -0.228
10   40       1.2    0.1   18.9       0.530      -0.234         0.569     -0.203
# … with 526 more rows, and abbreviated variable name ¹​hydrogen_ns_2
…
library(tidymodels)

rec_splines <- recipe(
  HHV ~ carbon + hydrogen + oxygen + nitrogen + sulfur, 
  data = biomass) |>
  step_ns(carbon, hydrogen, 
          deg_free = 3)

expanded_biomass <- prep(rec_splines, biomass) |>
  bake(biomass)

expanded_biomass

# A tibble: 536 × 10
   oxygen nitrogen sulfur   HHV carbon…¹ carbo…² carbo…³ hydro…⁴ hydro…⁵ hydro…⁶
    <dbl>    <dbl>  <dbl> <dbl>    <dbl>   <dbl>   <dbl>   <dbl>   <dbl>   <dbl>
 1   42.9     0.41   0     20.0   0.221    0.536  -0.272  0.228    0.534  -0.279
 2   41.3     0.2    0     19.2   0.210    0.540  -0.275  0.245    0.528  -0.275
 3   46.2     0.11   0.02  18.3   0.144    0.564  -0.290  0.274    0.518  -0.269
 4   35.6     3.3    0.16  18.2   0.0361   0.597  -0.308  0.0529   0.582  -0.304
 5   40.7     1      0.02  18.4   0.101    0.579  -0.298  0.159    0.556  -0.291
 6   40.2     2.04   0.1   18.5   0.0472   0.595  -0.307  0.260    0.523  -0.272
 7   38.2     2.68   0.2   18.7   0.118    0.573  -0.296  0.325    0.499  -0.256
 8   39.7     1.7    0.2   18.3   0.0586   0.591  -0.305  0.245    0.528  -0.275
 9   40.9     0.8    0     18.6   0.183    0.550  -0.282  0.187    0.547  -0.286
10   40       1.2    0.1   18.9   0.115    0.574  -0.296  0.302    0.508  -0.262
# … with 526 more rows, and abbreviated variable names ¹​carbon_ns_1,
#   ²​carbon_ns_2, ³​carbon_ns_3, ⁴​hydrogen_ns_1, ⁵​hydrogen_ns_2, ⁶​hydrogen_ns_3
…
